{
   "name":"ps_pipe_fix1",
   "projectDescription":"A demo project for predicting - if a person can get a stroke, available on Kaggle@ https://www.kaggle.com/asaumya/healthcare-dataset-stroke-data.",
   "owner":{
      "uid":"gagandeep.chhabra"
   },
   "developers":[
      "gagandeep.chhabra"
   ],
   "bigdata_environments":[
      "DEV"
   ],
   "persistent_volume_size":2,
   "components":[
      {
         "type":"job",
         "flavor":"pyspark",
         "name":"string_indexer",
         "description": "This component encodes a string column of labels to a column of label indices. Extends pysaprk' StringIndexer."
      },
      {
         "type":"job",
         "flavor":"pyspark",
         "name":"one_hot_encoder",
         "description": "This maps a categorical feature, represented as a label index, to a binary vector with at most a single one-value indicating the presence of a specific feature value from among the set of all feature values and extends pyspark' OneHotEncoderEstimator."
      },
      {
         "type":"job",
         "flavor":"pyspark",
         "name":"vector_assembler",
         "description": "Component extending pyspark' VectorAssembler helps in assembling all the feature into feature vector."
      },
      {
         "type":"job",
         "flavor":"pyspark",
         "name":"model_evaluation",
         "description": "This job is used for model generating predictions."
      }
   ],
   "pipelines":[
      {
         "name":"feature_engg_and_classifier_pipeline",
         "components":[
            "string_indexer",
            "one_hot_encoder",
            "vector_assembler"
         ],
         "description": "Feature engineering and model generation pipeline."
      }
   ]
}