{
  "name":"ps_pipe_fix1",
  "target_environment":"DEV",
  "pipelines":{
    "feature_engg_and_classifier_pipeline":{
      "components":{
        "string_indexer":{
          "build_version":3,
          "args":[
            "--model_param_numTrees",
            {
              "inputValue":"model_param_numTrees"
            },
            "--model_param_mxDepth",
            {
              "inputValue":"model_param_mxDepth"
            }
          ]
        },
        "vector_assembler":{
          "build_version":3,
          "args":[
            "--model_param_numTrees",
            {
              "inputValue":"model_param_numTrees"
            },
            "--model_param_mxDepth",
            {
              "inputValue":"model_param_mxDepth"
            }
          ]
        },
        "one_hot_encoder":{
          "build_version":3,
          "args":[
            "--model_param_numTrees",
            {
              "inputValue":"model_param_numTrees"
            },
            "--model_param_mxDepth",
            {
              "inputValue":"model_param_mxDepth"
            }
          ]
        }
      }
    }
  }
}