{
  "name":"ps_pipe_fix1",
  "target_environment":"DEV",
  "components":{
    "model_evaluation":{
      "build_version":1,
      "args":[
        "--driver_memory", "512m",
        "--executor_memory", "512m",
        "--executor_cores", 1,
        "--num_executors", 1,
        "--run_name","ps_pipe_fix1_1a",
        "--project_name","ps_pipe_fix1",
        "--pipeline_name","feature_engg_and_classifier_pipeline",
        "--pipeline_version",1
      ]
    }
  }
}