{
   "name":"stroke_predictor_v2",
   "components":{
      "model_evaluation":{
         "branch":"master",
         "description":"build from master with stroke predictor init code."
      }
   },
   "pipelines": {
      "fasdeature_engg_and_classifier_pipeline": {
         "branch":"master",
         "description": "build from master with stroke predictor evaluation init code."
      }
   }
}
